[{
    "text": "Just like volunteering for a Free and Open source project"
  },

  {
    "text": "Write code for projects and infrastructure we are building"
  },

  {
    "text": "Help with Events we organize"
  },
  {
    "text": "Speak at the events"
  },
  {
    "text": "Organize your own community."
  }
]
