[{
    "title": "Individuals",
    "content": "Lorem Ipsum is simply dummy text of the printing and typesetting industry dummy text of the printing.",
    "logo": "individuals.png"
  },
  {
    "title": "Startups",
    "content": "Lorem Ipsum is simply dummy text of the printing and typesetting industry dummy text of the printing.",
    "logo": "startups.png"
  },
  {
    "title": "Communities",
    "content": "Lorem Ipsum is simply dummy text of the printing and typesetting industry dummy text of the printing.",
    "logo": "communities.png"
  },
  {
    "title": "Organizations",
    "content": "Lorem Ipsum is simply dummy text of the printing and typesetting industry dummy text of the printing.",
    "logo": "organization.png"
  }
]
