[{
    "title": "Pycon India 2018",
    "place": "Hyderabad, India.",
    "date": "5th-9th October 2018"
  },
  {
    "title": "Pycon India 2018",
    "place": "Hyderabad, India.",
    "date": "5th-9th October 2018"
  },
  {
    "title": "Pycon India 2018",
    "place": "Hyderabad, India.",
    "date": "5th-9th October 2018"
  }
]
