[{
    "text": "Get to learn about how to develop software in community way"
  },

  {
    "text": "Give back something you have gained"
  },

  {
    "text": "Learn something new"
  },
  {
    "text": "Get to learn about new opportunities"
  },
  {
    "text": "Corporates get to tap into a dedicated trained pool of Free and Open source candidates."
  }
]
